module gitlab.com/JohnLewisPartnership/digital/services/platform-apps/hoff-api

go 1.14

require (
	github.com/gorilla/handlers v1.5.1
	github.com/gorilla/mux v1.8.0
	github.com/sirupsen/logrus v1.7.0
	golang.org/x/oauth2 v0.0.0-20201208152858-08078c50e5b5
	google.golang.org/api v0.36.0
)
